COVID-19 Test Analysis
…
# which states have the highest mean positive test rate?
covid %>%
  group_by(state) %>%
  summarise(meanposrate = mean(posrate)) %>%
  arrange(desc(meanposrate))

## # A tibble: 56 x 2
##    state meanposrate
##    <chr>       <dbl>
##  1 PR          0.453
##  2 NJ          0.425
##  3 NY          0.306
##  4 MI          0.270
##  5 DE          0.246
##  6 MD          0.246
##  7 CT          0.236
##  8 VI          0.190
##  9 GA          0.181
## 10 DC          0.181
## #  with 46 more rows
…
